^C:\USERS\VASYA\DOCUMENTS\GIT PROJECTS\PROJECTADDIN\ADDIN_I.C|C:\USERS\VASYA\DOCUMENTS\GIT PROJECTS\PROJECTADDIN\DLLDATAX.C
C:\USERS\VASYA\DOCUMENTS\GIT PROJECTS\PROJECTADDIN\RELEASE\VC120.PDB
C:\USERS\VASYA\DOCUMENTS\GIT PROJECTS\PROJECTADDIN\RELEASE\ADDIN_I.OBJ
C:\USERS\VASYA\DOCUMENTS\GIT PROJECTS\PROJECTADDIN\RELEASE\DLLDATAX.OBJ
^C:\USERS\VASYA\DOCUMENTS\GIT PROJECTS\PROJECTADDIN\DLLDATAX.C
C:\USERS\VASYA\DOCUMENTS\GIT PROJECTS\PROJECTADDIN\RELEASE\VC120.PDB
^C:\USERS\VASYA\DOCUMENTS\GIT PROJECTS\PROJECTADDIN\ADDINCOM.CPP|C:\USERS\VASYA\DOCUMENTS\GIT PROJECTS\PROJECTADDIN\COMFUNC.CPP
C:\USERS\VASYA\DOCUMENTS\GIT PROJECTS\PROJECTADDIN\RELEASE\VC120.PDB
C:\USERS\VASYA\DOCUMENTS\GIT PROJECTS\PROJECTADDIN\RELEASE\COMFUNC.OBJ
C:\USERS\VASYA\DOCUMENTS\GIT PROJECTS\PROJECTADDIN\RELEASE\ADDINCOM.OBJ
^C:\USERS\VASYA\DOCUMENTS\GIT PROJECTS\PROJECTADDIN\ADDINCOM.CPP|C:\USERS\VASYA\DOCUMENTS\GIT PROJECTS\PROJECTADDIN\COMFUNC.CPP|C:\USERS\VASYA\DOCUMENTS\GIT PROJECTS\PROJECTADDIN\DICTS.CPP|C:\USERS\VASYA\DOCUMENTS\GIT PROJECTS\PROJECTADDIN\HW.CPP|C:\USERS\VASYA\DOCUMENTS\GIT PROJECTS\PROJECTADDIN\NETCF.CPP
C:\USERS\VASYA\DOCUMENTS\GIT PROJECTS\PROJECTADDIN\RELEASE\VC120.PDB
C:\USERS\VASYA\DOCUMENTS\GIT PROJECTS\PROJECTADDIN\RELEASE\DICTS.OBJ
C:\USERS\VASYA\DOCUMENTS\GIT PROJECTS\PROJECTADDIN\RELEASE\NETCF.OBJ
C:\USERS\VASYA\DOCUMENTS\GIT PROJECTS\PROJECTADDIN\RELEASE\HW.OBJ
C:\USERS\VASYA\DOCUMENTS\GIT PROJECTS\PROJECTADDIN\RELEASE\COMFUNC.OBJ
C:\USERS\VASYA\DOCUMENTS\GIT PROJECTS\PROJECTADDIN\RELEASE\ADDINCOM.OBJ
^C:\USERS\VASYA\DOCUMENTS\GIT PROJECTS\PROJECTADDIN\ADDINCOM.CPP|C:\USERS\VASYA\DOCUMENTS\GIT PROJECTS\PROJECTADDIN\HW.CPP
C:\USERS\VASYA\DOCUMENTS\GIT PROJECTS\PROJECTADDIN\RELEASE\VC120.PDB
C:\USERS\VASYA\DOCUMENTS\GIT PROJECTS\PROJECTADDIN\RELEASE\HW.OBJ
C:\USERS\VASYA\DOCUMENTS\GIT PROJECTS\PROJECTADDIN\RELEASE\ADDINCOM.OBJ
^C:\USERS\VASYA\DOCUMENTS\GIT PROJECTS\PROJECTADDIN\HW.CPP
C:\USERS\VASYA\DOCUMENTS\GIT PROJECTS\PROJECTADDIN\RELEASE\VC120.PDB
^C:\USERS\VASYA\DOCUMENTS\GIT PROJECTS\PROJECTADDIN\ADDINCOM.CPP|C:\USERS\VASYA\DOCUMENTS\GIT PROJECTS\PROJECTADDIN\COMFUNC.CPP|C:\USERS\VASYA\DOCUMENTS\GIT PROJECTS\PROJECTADDIN\DICTS.CPP|C:\USERS\VASYA\DOCUMENTS\GIT PROJECTS\PROJECTADDIN\NETCF.CPP
C:\USERS\VASYA\DOCUMENTS\GIT PROJECTS\PROJECTADDIN\RELEASE\VC120.PDB
C:\USERS\VASYA\DOCUMENTS\GIT PROJECTS\PROJECTADDIN\RELEASE\DICTS.OBJ
C:\USERS\VASYA\DOCUMENTS\GIT PROJECTS\PROJECTADDIN\RELEASE\NETCF.OBJ
C:\USERS\VASYA\DOCUMENTS\GIT PROJECTS\PROJECTADDIN\RELEASE\COMFUNC.OBJ
C:\USERS\VASYA\DOCUMENTS\GIT PROJECTS\PROJECTADDIN\RELEASE\ADDINCOM.OBJ
^C:\USERS\VASYA\DOCUMENTS\GIT PROJECTS\PROJECTADDIN\ADDINCOM.CPP|C:\USERS\VASYA\DOCUMENTS\GIT PROJECTS\PROJECTADDIN\NETCF.CPP
C:\USERS\VASYA\DOCUMENTS\GIT PROJECTS\PROJECTADDIN\RELEASE\VC120.PDB
C:\USERS\VASYA\DOCUMENTS\GIT PROJECTS\PROJECTADDIN\RELEASE\NETCF.OBJ
C:\USERS\VASYA\DOCUMENTS\GIT PROJECTS\PROJECTADDIN\RELEASE\ADDINCOM.OBJ
^C:\USERS\VASYA\DOCUMENTS\GIT PROJECTS\PROJECTADDIN\ADDIN.CPP|C:\USERS\VASYA\DOCUMENTS\GIT PROJECTS\PROJECTADDIN\ADDINCOM.CPP|C:\USERS\VASYA\DOCUMENTS\GIT PROJECTS\PROJECTADDIN\COMFUNC.CPP|C:\USERS\VASYA\DOCUMENTS\GIT PROJECTS\PROJECTADDIN\DICTS.CPP|C:\USERS\VASYA\DOCUMENTS\GIT PROJECTS\PROJECTADDIN\NETCF.CPP
C:\USERS\VASYA\DOCUMENTS\GIT PROJECTS\PROJECTADDIN\RELEASE\VC120.PDB
C:\USERS\VASYA\DOCUMENTS\GIT PROJECTS\PROJECTADDIN\RELEASE\DICTS.OBJ
C:\USERS\VASYA\DOCUMENTS\GIT PROJECTS\PROJECTADDIN\RELEASE\NETCF.OBJ
C:\USERS\VASYA\DOCUMENTS\GIT PROJECTS\PROJECTADDIN\RELEASE\COMFUNC.OBJ
C:\USERS\VASYA\DOCUMENTS\GIT PROJECTS\PROJECTADDIN\RELEASE\ADDINCOM.OBJ
C:\USERS\VASYA\DOCUMENTS\GIT PROJECTS\PROJECTADDIN\RELEASE\ADDIN.OBJ
^C:\USERS\VASYA\DOCUMENTS\GIT PROJECTS\PROJECTADDIN\NETCF.CPP
C:\USERS\VASYA\DOCUMENTS\GIT PROJECTS\PROJECTADDIN\RELEASE\VC120.PDB
^C:\USERS\VASYA\DOCUMENTS\GIT PROJECTS\PROJECTADDIN\STDAFX.CPP
C:\USERS\VASYA\DOCUMENTS\GIT PROJECTS\PROJECTADDIN\RELEASE\ADDINCOM.PCH
C:\USERS\VASYA\DOCUMENTS\GIT PROJECTS\PROJECTADDIN\RELEASE\VC120.PDB
C:\USERS\VASYA\DOCUMENTS\GIT PROJECTS\PROJECTADDIN\RELEASE\STDAFX.OBJ
^C:\USERS\VASYA\DOCUMENTS\GIT PROJECTS\PROJECTADDIN\ADDIN.CPP|C:\USERS\VASYA\DOCUMENTS\GIT PROJECTS\PROJECTADDIN\ADDINCOM.CPP|C:\USERS\VASYA\DOCUMENTS\GIT PROJECTS\PROJECTADDIN\COMFUNC.CPP|C:\USERS\VASYA\DOCUMENTS\GIT PROJECTS\PROJECTADDIN\DICTS.CPP|C:\USERS\VASYA\DOCUMENTS\GIT PROJECTS\PROJECTADDIN\NET_SERVICE.CPP
C:\USERS\VASYA\DOCUMENTS\GIT PROJECTS\PROJECTADDIN\RELEASE\VC120.PDB
C:\USERS\VASYA\DOCUMENTS\GIT PROJECTS\PROJECTADDIN\RELEASE\NET_SERVICE.OBJ
C:\USERS\VASYA\DOCUMENTS\GIT PROJECTS\PROJECTADDIN\RELEASE\DICTS.OBJ
C:\USERS\VASYA\DOCUMENTS\GIT PROJECTS\PROJECTADDIN\RELEASE\COMFUNC.OBJ
C:\USERS\VASYA\DOCUMENTS\GIT PROJECTS\PROJECTADDIN\RELEASE\ADDINCOM.OBJ
C:\USERS\VASYA\DOCUMENTS\GIT PROJECTS\PROJECTADDIN\RELEASE\ADDIN.OBJ
^C:\USERS\VASYA\DOCUMENTS\GIT PROJECTS\PROJECTADDIN\ADDIN.CPP
C:\USERS\VASYA\DOCUMENTS\GIT PROJECTS\PROJECTADDIN\RELEASE\VC120.PDB
^C:\USERS\VASYA\DOCUMENTS\GIT PROJECTS\PROJECTADDIN\ADDIN_I.C
C:\USERS\VASYA\DOCUMENTS\GIT PROJECTS\PROJECTADDIN\RELEASE\VC120.PDB
C:\USERS\VASYA\DOCUMENTS\GIT PROJECTS\PROJECTADDIN\RELEASE\ADDIN_I.OBJ
^C:\USERS\VASYA\DOCUMENTS\GIT PROJECTS\PROJECTADDIN\DLLMAIN.CPP
C:\USERS\VASYA\DOCUMENTS\GIT PROJECTS\PROJECTADDIN\RELEASE\VC120.PDB
C:\USERS\VASYA\DOCUMENTS\GIT PROJECTS\PROJECTADDIN\RELEASE\DLLMAIN.OBJ
^C:\USERS\VASYA\DOCUMENTS\GIT PROJECTS\PROJECTADDIN\ADDINCOM.CPP|C:\USERS\VASYA\DOCUMENTS\GIT PROJECTS\PROJECTADDIN\COMFUNC.CPP|C:\USERS\VASYA\DOCUMENTS\GIT PROJECTS\PROJECTADDIN\NET_SERVICE.CPP
C:\USERS\VASYA\DOCUMENTS\GIT PROJECTS\PROJECTADDIN\RELEASE\VC120.PDB
C:\USERS\VASYA\DOCUMENTS\GIT PROJECTS\PROJECTADDIN\RELEASE\NET_SERVICE.OBJ
C:\USERS\VASYA\DOCUMENTS\GIT PROJECTS\PROJECTADDIN\RELEASE\COMFUNC.OBJ
C:\USERS\VASYA\DOCUMENTS\GIT PROJECTS\PROJECTADDIN\RELEASE\ADDINCOM.OBJ
^C:\USERS\VASYA\DOCUMENTS\GIT PROJECTS\PROJECTADDIN\ADDINCOM.CPP|C:\USERS\VASYA\DOCUMENTS\GIT PROJECTS\PROJECTADDIN\NET_SERVICE.CPP
C:\USERS\VASYA\DOCUMENTS\GIT PROJECTS\PROJECTADDIN\RELEASE\VC120.PDB
C:\USERS\VASYA\DOCUMENTS\GIT PROJECTS\PROJECTADDIN\RELEASE\NET_SERVICE.OBJ
C:\USERS\VASYA\DOCUMENTS\GIT PROJECTS\PROJECTADDIN\RELEASE\ADDINCOM.OBJ
^C:\USERS\VASYA\DOCUMENTS\GIT PROJECTS\PROJECTADDIN\ADDINCOM.CPP|C:\USERS\VASYA\DOCUMENTS\GIT PROJECTS\PROJECTADDIN\COMFUNC.CPP|C:\USERS\VASYA\DOCUMENTS\GIT PROJECTS\PROJECTADDIN\DICTS.CPP|C:\USERS\VASYA\DOCUMENTS\GIT PROJECTS\PROJECTADDIN\NET_SERVICE.CPP
C:\USERS\VASYA\DOCUMENTS\GIT PROJECTS\PROJECTADDIN\RELEASE\VC120.PDB
C:\USERS\VASYA\DOCUMENTS\GIT PROJECTS\PROJECTADDIN\RELEASE\NET_SERVICE.OBJ
C:\USERS\VASYA\DOCUMENTS\GIT PROJECTS\PROJECTADDIN\RELEASE\DICTS.OBJ
C:\USERS\VASYA\DOCUMENTS\GIT PROJECTS\PROJECTADDIN\RELEASE\COMFUNC.OBJ
C:\USERS\VASYA\DOCUMENTS\GIT PROJECTS\PROJECTADDIN\RELEASE\ADDINCOM.OBJ
^C:\USERS\VASYA\DOCUMENTS\GIT PROJECTS\PROJECTADDIN\COMFUNC.CPP
C:\USERS\VASYA\DOCUMENTS\GIT PROJECTS\PROJECTADDIN\RELEASE\VC120.PDB
^C:\USERS\VASYA\DOCUMENTS\GIT PROJECTS\PROJECTADDIN\DICTS.CPP
C:\USERS\VASYA\DOCUMENTS\GIT PROJECTS\PROJECTADDIN\RELEASE\VC120.PDB
^C:\USERS\VASYA\DOCUMENTS\GIT PROJECTS\PROJECTADDIN\NET_SERVICE.CPP
C:\USERS\VASYA\DOCUMENTS\GIT PROJECTS\PROJECTADDIN\RELEASE\VC120.PDB
^C:\USERS\VASYA\DOCUMENTS\GIT PROJECTS\PROJECTADDIN\ADDINCOM.CPP
C:\USERS\VASYA\DOCUMENTS\GIT PROJECTS\PROJECTADDIN\RELEASE\VC120.PDB
C:\USERS\VASYA\DOCUMENTS\GIT PROJECTS\PROJECTADDIN\RELEASE\ADDINCOM.OBJ
