^C:\USERS\VASYA\DOCUMENTS\GIT PROJECTS\PROJECTADDIN\ADDIN.IDL
C:\USERS\VASYA\DOCUMENTS\GIT PROJECTS\PROJECTADDIN\RELEASE\ADDIN.TLB
C:\USERS\VASYA\DOCUMENTS\GIT PROJECTS\PROJECTADDIN\ADDIN_P.C
C:\USERS\VASYA\DOCUMENTS\GIT PROJECTS\PROJECTADDIN\ADDIN_I.C
C:\USERS\VASYA\DOCUMENTS\GIT PROJECTS\PROJECTADDIN\ADDIN_I.H
